Relic Name,amount,Product
Axi O1,0.0,0.0
Axi O3,0.0,0.0
Axi O4,0.0,0.0
Axi S4,0.0,0.0
Axi V6,0.0,0.0
Axi E1,0.0,0.0
Axi G4,0.0,0.0
Axi H4,0.0,0.0
Axi K2,0.0,0.0
Axi K5,0.0,0.0
Axi L5,0.0,0.0
Axi N5,0.0,0.0
Axi R2,0.0,0.0
Axi S2,0.0,0.0
Axi H6,0.0,0.0
Axi B7,0.0,0.0
Axi G3,0.0,0.0
Axi H6,0.0,0.0
