Relic Name,amount,Product
Axi O1,8.0,74.63344
Axi O3,8.0,47.728
Axi O4,8.0,49.86416
Axi S4,8.0,128.72304
Axi V6,8.0,73.77056
Axi C4,0.0,0.0
Axi D2,0.0,0.0
Axi E1,7.0,98.77672
Axi G3,4.0,24.2991
Axi G4,6.0,31.36764
