Relic Name,sum Adjusted
Lith G2,31.71652
Lith G1,30.60658
Axi E1,20.95226
Axi L1,20.47524
Neo S5,20.28338
Meso F3,18.38164
Meso F2,17.74622
Meso M1,17.5959
Meso N3,17.13812
Neo N5,16.24452
Lith B1,15.78392
Neo F1,15.16574
Axi N6,14.9724
Neo N9,14.95036
Meso F4,14.80248
Meso C1,14.75156
Axi R1,14.52848
Axi N4,14.4486
Axi S4,14.05652
Lith S3,14.03516
Neo S10,13.96154
Lith T3,13.90326
Neo B8,13.80516
Lith M2,13.73312
Axi N5,13.47134
Meso B3,13.0671
Meso V6,12.929
Axi M4,12.7962
Meso N6,12.64224
Axi A7,12.62778
Axi N1,12.36726
Axi A5,12.29
Axi L5,12.11156
Meso C3,11.94814
Axi I3,11.8977
Axi D4,11.78116
Neo H3,11.7677
Lith D5,11.74004
Meso E1,11.71658
Neo B3,11.6952
Axi K5,11.69004
Axi N2,11.26242
Meso B1,11.17686
Axi G7,11.062
Meso O4,11.01854
Neo L1,11.01368
Meso N5,10.92918
Meso F1,10.84708
Neo A10,10.7447
Neo R1,10.66774
Lith M1,10.66178
Meso O5,10.63026
Lith O3,10.60708
Axi O5,10.60112
Meso B2,10.53858
Axi L3,10.5007
Axi A9,10.47454
Neo S2,10.35156
Axi S3,10.32438
Lith C1,10.32308
Axi A15,10.30814
Lith M8,10.30408
Axi S2,10.25884
Neo A5,10.2077
Meso S3,10.18324
Meso P1,10.1037
Lith B4,10.06708
Lith V7,10.06476
Neo E1,10.01606
Axi B1,9.91584
Neo N6,9.86666
Axi K1,9.80202
Neo T8,9.7611
Neo N3,9.74878
Lith L4,9.74652
Meso L1,9.71982
Lith L3,9.71602
Neo N11,9.7045
Lith K8,9.69642
Meso L2,9.6177
Lith N2,9.59964
Axi M3,9.58918
Neo A6,9.54048
Axi R2,9.51558
Meso D3,9.4494
Neo N12,9.44812
Axi I2,9.44004
Meso O2,9.39284
Meso E2,9.37794
Axi P2,9.35836
Meso C2,9.32538
Axi D2,9.28922
Axi S5,9.27176
Axi V2,9.21884
Axi K3,9.21092
Neo S13,9.18944
Neo H1,9.17304
Axi T1,9.15028
Axi A2,9.11088
Lith A5,9.1062
Lith M3,9.06216
Meso D5,8.9907
Lith N1,8.96794
Neo A7,8.95854
Meso R4,8.92918
Axi G8,8.89834
Neo H2,8.87578
Lith K5,8.8175
Meso H1,8.7905
Neo S8,8.66814
Lith R1,8.65858
Meso R1,8.64984
Axi G1,8.51476
Meso D6,8.50326
Meso I2,8.50238
Axi A3,8.48176
Neo K3,8.44558
Meso I1,8.44238
Meso S11,8.40792
Axi D3,8.40174
Neo G3,8.3779
Axi H4,8.3722
Meso C7,8.36644
Axi N10,8.34304
Meso N8,8.3362
Neo R4,8.3324
Lith V6,8.3324
Lith K4,8.3056
Lith N9,8.29876
Lith H1,8.28154
Neo V1,8.2758
Axi H3,8.18624
Neo S6,8.18534
Meso K1,8.14668
Axi G10,8.12642
Meso M3,8.0807
Axi L4,8.07838
Meso S1,7.99282
Neo R3,7.93942
Lith N7,7.9041
Lith O1,7.85412
Lith O2,7.84494
Lith P1,7.84454
Axi K8,7.83898
Axi S13,7.78302
Lith C7,7.76346
Neo D4,7.75916
Lith K7,7.74944
Meso S2,7.74132
Lith P7,7.7128
Lith B9,7.71026
Axi C4,7.68114
Lith L2,7.67624
Neo K2,7.65644
Axi K2,7.59812
Axi O1,7.58492
Axi N7,7.5803
Axi C6,7.57962
Meso N13,7.57752
Meso G1,7.56916
Axi I1,7.55858
Lith P2,7.54534
Lith M4,7.53196
Neo I3,7.52472
Axi K4,7.51132
Lith B5,7.49624
Neo G1,7.49558
Axi H2,7.4773
Meso K2,7.46112
Meso Z2,7.45112
Neo P1,7.44006
Meso A1,7.4188
Meso D2,7.41748
Lith S2,7.40156
Axi P1,7.36812
Axi S6,7.35304
Neo B7,7.34942
Meso E3,7.34196
Neo N8,7.31986
Axi N9,7.31386
Axi H1,7.30812
Axi T7,7.29686
Neo C1,7.29602
Axi D1,7.28922
Meso T6,7.28556
Meso S9,7.28536
Axi A6,7.27176
Meso M2,7.2392
Axi K12,7.22648
Neo E2,7.20006
Axi S10,7.1956
Neo N16,7.18556
Meso R3,7.166
Axi A11,7.14236
Axi C3,7.13368
Meso O1,7.13364
Lith S9,7.13196
Neo T1,7.1026
Meso N15,7.09938
Meso R2,7.08662
Axi R3,7.0392
Axi M1,7.0377
Neo I1,7.01576
Axi B7,7.01534
Meso G3,7.00942
Axi A1,6.98792
Lith K6,6.95112
Lith M5,6.94388
Lith N3,6.91962
Axi N3,6.91706
Axi G4,6.90794
Meso H4,6.90218
Meso H2,6.89644
Neo S16,6.88918
Meso O6,6.88282
Neo N1,6.87812
Neo R2,6.87748
Neo S1,6.86818
Neo S7,6.86516
Axi A12,6.8275
Axi A13,6.80324
Neo B4,6.79686
Lith L1,6.7875
Meso C5,6.77878
Meso A4,6.76452
Lith C2,6.75556
Lith A3,6.72154
Lith S5,6.71646
Lith M6,6.71558
Lith N12,6.69112
Neo D1,6.67502
Lith C3,6.67218
Neo M1,6.66706
Meso E5,6.66558
Neo T5,6.66178
Lith S7,6.64942
Lith T6,6.64792
Meso P6,6.6377
Axi A8,6.63176
Axi C5,6.62602
Neo A3,6.6177
Meso P12,6.59664
Neo V4,6.4943
Axi L2,6.47942
Meso N9,6.46834
Lith I1,6.45514
Lith R2,6.44602
Axi H5,6.42962
Neo S3,6.42948
Neo S15,6.42686
Neo N13,6.42008
Neo N17,6.41452
Axi B3,6.41154
Axi O2,6.3926
Meso S5,6.38514
Neo S11,6.3839
Neo G4,6.37856
Lith N4,6.3645
Axi D5,6.35178
Axi C2,6.3515
Lith K3,6.33004
Axi C7,6.32664
Neo N7,6.31108
Axi S7,6.28898
Neo D6,6.263
Meso C10,6.23004
Neo N20,6.22494
Meso S6,6.206
Axi S11,6.20536
Meso S8,6.19578
Neo V6,6.19302
Lith N6,6.18728
Meso N11,6.18348
Axi K7,6.17088
Meso N1,6.14918
Meso D1,6.1413
Axi M2,6.1411
Neo R5,6.09342
Lith C8,6.08684
Meso N7,6.07708
Meso S7,6.0662
Meso O3,6.06308
Neo K4,6.05176
Lith N5,6.04344
Axi S9,6.04068
Lith S10,6.03688
Axi T8,6.03174
Lith M7,6.02984
Neo N18,6.02176
Meso N10,6.0109
Meso B6,6.00664
Meso C4,5.98432
Meso G4,5.9705
Lith H5,5.9696
Neo T4,5.96812
Axi G3,5.9562
Axi A18,5.95386
Lith H4,5.9413
Axi O4,5.93472
Meso P9,5.93366
Neo N10,5.90428
Neo B6,5.87536
Lith C9,5.87006
Neo S12,5.85984
Axi A16,5.85706
Lith D3,5.85474
Axi N8,5.85152
Lith S6,5.84302
Axi G9,5.83812
Axi S12,5.81856
Axi G6,5.81344
Meso K5,5.79578
Meso E4,5.7945
Lith S1,5.79132
Meso N4,5.7758
Neo A4,5.76856
Axi S14,5.69622
Axi G11,5.66556
Meso D4,5.6562
Lith P3,5.64856
Lith A4,5.63472
Lith P4,5.63364
Neo N15,5.61938
Lith B8,5.60622
Axi H7,5.6009
Neo K5,5.59046
Lith N11,5.58812
Neo I2,5.57748
Lith D1,5.57664
Neo O1,5.56706
Meso N14,5.56472
Lith C5,5.55688
Neo N4,5.55094
Axi K10,5.53918
Neo B5,5.5377
Neo P2,5.522
Lith B3,5.45876
Neo M4,5.44282
Neo E3,5.44214
Meso P11,5.43026
Meso T2,5.4296
Meso G2,5.41748
Axi B4,5.39792
Neo G2,5.38962
Meso T3,5.3896
Lith K1,5.38176
Meso C8,5.36686
Lith V8,5.34348
Neo K7,5.30556
Meso T5,5.296
Neo F3,5.29174
Lith C6,5.29046
Lith C4,5.27024
Meso H5,5.253
Neo D2,5.24088
Axi P4,5.236
Axi P3,5.23448
Lith H3,5.21176
Axi V9,5.19452
Meso S10,5.17472
Lith N8,5.16432
Meso P7,5.16322
Meso S4,5.16302
Lith V3,5.1358
Neo A9,5.11748
Lith B10,5.11472
Meso Z3,5.11112
Axi S8,5.10324
Neo P3,5.10196
Axi K11,5.09556
Lith N10,5.09258
Neo A8,5.08792
Lith S8,5.07918
Lith D2,5.0747
Axi K6,5.05982
Axi A14,5.05384
Axi B2,5.04922
Lith B6,5.03514
Neo S9,5.03218
Lith S13,5.03
Axi T3,5.01686
Axi K9,5.01154
Neo S14,4.99472
Axi E2,4.98302
Lith H2,4.9815
Neo K1,4.9794
Lith Z2,4.97068
Meso Z5,4.95726
Axi C8,4.9509
Meso V5,4.94538
Neo V8,4.93752
Lith H7,4.93556
Axi G12,4.93452
Meso V2,4.93284
Meso P2,4.8877
Axi A10,4.88748
Axi G5,4.8822
Lith V4,4.85006
Neo N23,4.8458
Meso A2,4.84
Meso B7,4.83236
Neo M2,4.81002
Meso C6,4.7875
Meso R5,4.77684
Lith F1,4.7696
Axi A4,4.7498
Meso N12,4.7496
Meso S12,4.7477
Neo T7,4.74474
Lith S4,4.72236
Neo L2,4.71344
Neo A1,4.69664
Neo T6,4.68302
Neo Z2,4.65876
Lith F2,4.65306
Lith K2,4.6394
Lith G4,4.63854
Meso P13,4.62472
Lith T1,4.62088
Lith P5,4.6194
Neo N22,4.5994
Neo M3,4.59408
Axi L6,4.5896
Lith V10,4.5879
Meso B4,4.55474
Lith P6,4.54324
Meso A5,4.52876
Axi V7,4.51664
Lith S12,4.50854
Neo V10,4.50772
Meso P14,4.5077
Meso P8,4.5028
Lith G3,4.48812
Meso G5,4.4877
Neo P5,4.48448
Meso V4,4.47814
Lith K9,4.4747
Lith T7,4.46004
Axi T6,4.45214
Axi W1,4.44922
Axi T4,4.43408
Meso B5,4.43112
Neo L3,4.42854
Neo C3,4.4277
Neo N21,4.4277
Lith A1,4.41916
Lith G5,4.4177
Axi W2,4.41686
Neo A2,4.39708
Axi P6,4.39472
Lith S11,4.38576
Meso K4,4.36388
Meso C9,4.34662
Neo S17,4.3428
Axi P5,4.32832
Neo Z7,4.32512
Lith V5,4.32216
Lith T2,4.3115
Lith G11,4.31
Lith N13,4.30516
Meso P4,4.3045
Lith B7,4.29938
Lith R3,4.29088
Neo V3,4.26432
Meso P10,4.2528
Axi T2,4.23902
Meso D7,4.23386
Lith S14,4.21896
Neo P4,4.17684
Neo D8,4.15346
Neo C4,4.14344
Axi G2,4.13258
Lith H6,4.1213
Neo B1,4.1079
Lith K10,4.10196
Lith B2,4.0981
Neo C2,4.08556
Neo F2,4.08194
Lith C11,4.02876
Meso T4,4.02768
Meso H3,4.02324
Axi H6,4.01834
Neo T2,4.01576
Meso V1,4.01434
Axi C1,4.00938
Meso P5,3.99918
Neo Z8,3.99708
Axi T5,3.97942
Neo A11,3.96322
Axi T10,3.96218
Neo Z3,3.95576
Meso N2,3.94834
Meso A3,3.94664
Meso B9,3.93344
Neo K6,3.93068
Lith S15,3.92556
Lith G8,3.92386
Axi B6,3.91768
Neo S18,3.90768
Lith G6,3.90066
Lith G7,3.87046
Axi V1,3.84988
Lith B11,3.84152
Meso P3,3.83556
Axi V8,3.81452
Neo D5,3.78344
Lith A2,3.7615
Lith H8,3.73834
Neo Z1,3.72432
Lith W2,3.71218
Lith R4,3.67684
Lith G10,3.67556
Meso H6,3.67026
Axi T9,3.66282
Meso K3,3.66026
Meso V3,3.629
Lith C10,3.60726
Neo N14,3.59576
Meso B8,3.59556
Axi O3,3.58068
Lith T4,3.5743
Axi S1,3.56024
Axi V5,3.53726
Lith G9,3.513
Neo Z5,3.5094
Axi A17,3.50916
Neo T3,3.48578
Neo V7,3.4777
Neo D7,3.45364
Lith N14,3.42068
Neo W1,3.41964
Axi B5,3.41556
Lith T10,3.41066
Axi V10,3.39072
Lith H9,3.38302
Lith P8,3.31536
Lith T8,3.3011
Lith D4,3.29726
Lith T9,3.28236
Axi V6,3.22004
Lith W1,3.2143
Meso A6,3.20196
Axi F1,3.18832
Meso Z1,3.17236
Neo V5,3.16176
Lith T5,3.10068
Lith A6,3.09748
Neo D3,3.04472
Neo B2,3.03002
Lith Z3,2.99792
Meso M4,2.95514
Lith R5,2.95022
Meso G6,2.94364
Neo Z10,2.8747
Axi V4,2.8709
Neo Z4,2.85302
Meso T1,2.84216
Meso V8,2.82388
Neo V2,2.82366
Lith V1,2.74238
Axi W3,2.72088
Neo N2,2.70874
Neo Z6,2.68432
Axi V11,2.66472
Lith Z1,2.65898
Meso W3,2.5596
Neo V9,2.49854
Meso V7,2.47386
Neo Z9,2.46004
Lith W3,2.3913
Lith V9,2.30512
Meso K6,2.22726
Meso Z4,2.2
Lith T11,2.11576
Meso W2,2.05642
Lith V2,1.95982
Axi Z1,1.92066
Meso W1,1.7562
Axi V3,1.54
 Requiem III,0
Requiem I,0
Requiem II,0
Requiem III,0
Requiem IV,0